{
    "key": "group_5d728d1c59c83",
    "title": "Component: Columns",
    "fields": [
        {
            "key": "field_5d728d30a292b",
            "label": "Columns",
            "name": "columns",
            "type": "repeater",
            "instructions": "Your column width should total 12. 4\/8, 4\/4\/4, 6\/6, 8\/4.",
            "required": 0,
            "conditional_logic": 0,
            "wrapper": {
                "width": "",
                "class": "",
                "id": ""
            },
            "collapsed": "",
            "min": 0,
            "max": 0,
            "layout": "block",
            "button_label": "Add Column",
            "sub_fields": [
                {
                    "key": "field_5d728d72a292c",
                    "label": "Width",
                    "name": "width",
                    "type": "select",
                    "instructions": "",
                    "required": 0,
                    "conditional_logic": 0,
                    "wrapper": {
                        "width": "",
                        "class": "",
                        "id": ""
                    },
                    "choices": {
                        "2": "2",
                        "3": "3",
                        "4": "4",
                        "6": "6",
                        "8": "8",
                        "10": "10",
                        "12": "12"
                    },
                    "default_value": [],
                    "allow_null": 0,
                    "multiple": 0,
                    "ui": 0,
                    "return_format": "value",
                    "ajax": 0,
                    "placeholder": ""
                },
                {
                    "key": "field_5d728d8ca292d",
                    "label": "Content",
                    "name": "content",
                    "type": "clone",
                    "instructions": "",
                    "required": 0,
                    "conditional_logic": 0,
                    "wrapper": {
                        "width": "",
                        "class": "",
                        "id": ""
                    },
                    "clone": [
                        "field_5d729de134152"
                    ],
                    "display": "seamless",
                    "layout": "block",
                    "prefix_label": 0,
                    "prefix_name": 0
                }
            ]
        }
    ],
    "location": [
        [
            {
                "param": "post_type",
                "operator": "==",
                "value": "post"
            }
        ]
    ],
    "menu_order": 0,
    "position": "normal",
    "style": "default",
    "label_placement": "top",
    "instruction_placement": "label",
    "hide_on_screen": "",
    "active": false,
    "description": "",
    "modified": 1577818683
}